<?xml version="1.0" encoding="UTF-8" standalone="no"?>
<svg
   xmlns:dc="http://purl.org/dc/elements/1.1/"
   xmlns:cc="http://creativecommons.org/ns#"
   xmlns:rdf="http://www.w3.org/1999/02/22-rdf-syntax-ns#"
   xmlns:svg="http://www.w3.org/2000/svg"
   xmlns="http://www.w3.org/2000/svg"
   xmlns:sodipodi="http://sodipodi.sourceforge.net/DTD/sodipodi-0.dtd"
   xmlns:inkscape="http://www.inkscape.org/namespaces/inkscape"
   width="100"
   height="100"
   viewBox="0 0 100 100"
   version="1.1"
   id="svg9"
   sodipodi:docname="arrow_1.svg"
   inkscape:version="1.0 (262b4497e3, 2020-09-04)">
  <metadata
     id="metadata15">
    <rdf:RDF>
      <cc:Work
         rdf:about="">
        <dc:format>image/svg+xml</dc:format>
        <dc:type
           rdf:resource="http://purl.org/dc/dcmitype/StillImage" />
        <dc:title></dc:title>
      </cc:Work>
    </rdf:RDF>
  </metadata>
  <defs
     id="defs13" />
  <sodipodi:namedview
     pagecolor="#ffffff"
     bordercolor="#666666"
     borderopacity="1"
     objecttolerance="10"
     gridtolerance="10"
     guidetolerance="10"
     inkscape:pageopacity="0"
     inkscape:pageshadow="2"
     inkscape:window-width="1920"
     inkscape:window-height="1052"
     id="namedview11"
     showgrid="false"
     inkscape:zoom="3.4345652"
     inkscape:cx="13.269578"
     inkscape:cy="41.768568"
     inkscape:window-x="0"
     inkscape:window-y="0"
     inkscape:window-maximized="1"
     inkscape:current-layer="svg9"
     fit-margin-top="5"
     lock-margins="true"
     fit-margin-left="5"
     fit-margin-right="5"
     fit-margin-bottom="5" />
  <path
     id="path862"
     d="M 50,5 C 25.164953,5 5,25.164953 5,50 5,74.835047 25.164953,95 50,95 74.835047,95 95,74.835047 95,50 95,25.164953 74.835047,5 50,5 Z m 0,3 C 73.213727,8 92,26.786274 92,50 92,73.213727 73.213727,92 50,92 26.786274,92 8,73.213727 8,50 8,26.786274 26.786274,8 50,8 Z m 22.119141,38.443359 a 1.5,1.5 0 0 0 -0.990234,0.439455 L 49.988282,68.023436 28.853516,46.882814 a 1.5,1.5 0 0 0 -1.13086,-0.433596 1.5,1.5 0 0 0 -0.990234,0.433596 1.5,1.5 0 0 0 0,2.121093 l 22.195312,22.20117 a 1.50015,1.50015 0 0 0 2.121093,0 L 73.25,49.003907 a 1.5,1.5 0 0 0 0,-2.121093 1.5,1.5 0 0 0 -1.130859,-0.439455 z" />
</svg>
