<?xml version="1.0" encoding="UTF-8" standalone="no"?>
<svg
   xmlns:dc="http://purl.org/dc/elements/1.1/"
   xmlns:cc="http://creativecommons.org/ns#"
   xmlns:rdf="http://www.w3.org/1999/02/22-rdf-syntax-ns#"
   xmlns:svg="http://www.w3.org/2000/svg"
   xmlns="http://www.w3.org/2000/svg"
   xmlns:sodipodi="http://sodipodi.sourceforge.net/DTD/sodipodi-0.dtd"
   xmlns:inkscape="http://www.inkscape.org/namespaces/inkscape"
   width="100"
   height="41.316"
   viewBox="0 0 26.458 10.931"
   version="1.1"
   id="svg4"
   sodipodi:docname="logo_wunderman_thompson.svg"
   inkscape:version="1.0 (262b4497e3, 2020-09-04)">
  <metadata
     id="metadata10">
    <rdf:RDF>
      <cc:Work
         rdf:about="">
        <dc:format>image/svg+xml</dc:format>
        <dc:type
           rdf:resource="http://purl.org/dc/dcmitype/StillImage" />
      </cc:Work>
    </rdf:RDF>
  </metadata>
  <defs
     id="defs8" />
  <sodipodi:namedview
     pagecolor="#ffffff"
     bordercolor="#666666"
     borderopacity="1"
     objecttolerance="10"
     gridtolerance="10"
     guidetolerance="10"
     inkscape:pageopacity="0"
     inkscape:pageshadow="2"
     inkscape:window-width="1920"
     inkscape:window-height="1025"
     id="namedview6"
     showgrid="false"
     inkscape:zoom="9.6601165"
     inkscape:cx="63.295576"
     inkscape:cy="29.430623"
     inkscape:window-x="1920"
     inkscape:window-y="27"
     inkscape:window-maximized="1"
     inkscape:current-layer="svg4" />
  <path
     d="M 2.13,3.501 V 2.674 H 1.323 V 2.13 H 2.13 V 1.323 H 2.674 V 2.13 H 3.481 V 2.674 H 2.674 v 0.827 z"
     id="path2"
     sodipodi:nodetypes="ccccccccccccc"
     style="fill:#ec4e20;fill-opacity:1" />
  <path
     d="m 3.51,3.5030002 0.4760001,2.481 h 0.285 L 4.666,4.0880004 5.0600002,5.9840005 H 5.3499999 L 5.814,3.5040005 H 5.555 l -0.3569999,1.8899998 -0.364,-1.8900001 h -0.337 L 4.1279999,5.3940003 3.785,3.5040002 Z m 2.9100001,0 v 1.888 c 0,0 0.044,0.626 0.8179999,0.631 0.7740002,0.005 0.838,-0.631 0.838,-0.631 v -1.888 H 7.794 v 1.7870001 c 0,0 -0.010999,0.45 -0.556,0.45 -0.5449999,0 -0.5560001,-0.45 -0.5560001,-0.45 V 3.5030002 Z m 2.4370001,0 v 2.481 H 9.1320001 V 4.0880001 L 10.259,5.9840002 h 0.253 v -2.48 H 10.249 V 5.3700003 L 9.1160002,3.5030002 Z m 2.4699998,0 v 2.4809997 h 0.45 c 0.341,0 0.478,-0.007 0.57,-0.03 0.07195,-0.0201 0.14139,-0.04828 0.207,-0.084 0.06147,-0.038599 0.11848,-0.083874 0.17,-0.1349998 0.05743,-0.064516 0.105867,-0.1365014 0.144,-0.214 l 0.063,-0.132 c 0.033,-0.09 0.031,-1.172 0,-1.29 C 12.915256,4.052679 12.89411,4.0083737 12.868,3.967 12.829944,3.8891506 12.781503,3.8168243 12.724,3.752 12.67248,3.700874 12.615467,3.6555991 12.554,3.617 12.488303,3.5819699 12.418864,3.5544627 12.347,3.535 12.255,3.511 12.118,3.503 11.777,3.503 Z m 2.448,0 v 2.4809997 h 1.513 v -0.262 h -1.251 v -0.847 h 1.11 V 4.6130001 h -1.11 V 3.7660002 h 1.25 v -0.263 z m 2.25,0 v 2.4770001 h 0.262 V 5.0000005 h 0.615 l 0.447,0.9800001 h 0.29 l -0.464,-1.038 c 0,0 0.046,-0.042 0.102,-0.079 0.07104,-0.04922 0.131556,-0.1121127 0.178,-0.1849999 0.04231,-0.065648 0.07656,-0.1361562 0.102,-0.21 0.01784,-0.08544 0.02356,-0.1729651 0.017,-0.2600001 0.0022,-0.1029365 -0.02451,-0.2044258 -0.077,-0.2930002 -0.0446,-0.079647 -0.100514,-0.1524047 -0.166,-0.216 -0.06405,-0.054869 -0.135814,-0.1000188 -0.213,-0.134 -0.106,-0.042 -0.153,-0.046 -0.604,-0.053 z m 2.324,0 v 2.483 h 0.282 l 0.004,-1.895 0.53,1.0679999 h 0.185 l 0.537,-1.0679999 v 1.895 h 0.277 v -2.483 h -0.28 l -0.623,1.212 -0.625,-1.212 z m 3.294,0 -0.785,2.481 h 0.273 l 0.175,-0.5540001 h 0.964 l 0.175,0.5540001 h 0.274 l -0.77,-2.4800003 z m 1.838,0 v 2.4809997 h 0.275 V 4.0880001 l 1.127,1.8960001 h 0.252 v -2.48 H 24.873 V 5.3700003 L 23.74,3.5030002 Z m -11.892,0.26 0.338,0.006 c 0.323,0.006 0.343,0.01 0.453,0.063 0.066,0.032 0.142,0.09 0.177,0.135 0.03791,0.049551 0.06886,0.1040569 0.092,0.1620001 0.023,0.067 0.03,0.1969999 0.03,0.612 0,0.301 -0.01,0.56 -0.022,0.6029998 -0.01984,0.05712 -0.04852,0.1107725 -0.085,0.159 -0.167,0.2100001 -0.362,0.2100001 -0.635,0.2160002 l -0.348,0.007 z m 4.698,0.002 0.338,0.008 c 0.299,0.006 0.347,0.012 0.421,0.051 0.112677,0.063499 0.200992,0.1627215 0.251,0.282 0.013,0.04 0.02,0.1230001 0.015,0.188 -0.0036,0.076191 -0.02743,0.1500491 -0.069,0.214 -0.04069,0.063414 -0.09459,0.1173056 -0.158,0.158 -0.099,0.06 -0.1,0.061 -0.449,0.067 l -0.35,0.007 z m 5.51,0.188 0.379,1.1840001 h -0.777 z m -12.132,3.104 c -0.066936,-2.734e-4 -0.1335813,0.00881 -0.1980001,0.027 -0.077928,0.024262 -0.1525091,0.058193 -0.2219998,0.101 -0.065397,0.044644 -0.1248707,0.097398 -0.177,0.1569999 -0.04,0.049 -0.093,0.1330001 -0.1180001,0.188 -0.045,0.097 -0.046,0.1140001 -0.046,0.7950002 v 0.6959999 l 0.057,0.1160001 c 0.032,0.064 0.1000002,0.16 0.153,0.2149998 0.055047,0.055948 0.1172537,0.1043674 0.1850002,0.144 0.05,0.025 0.1300001,0.058 0.1799999,0.072 0.079306,0.018116 0.1608385,0.024517 0.2420002,0.018999 0.081915,-0.00419 0.1630952,-0.017604 0.2419999,-0.04 C 10.182698,9.4574101 10.356147,9.281793 10.443,9.0609992 c 0.03,-0.088 0.034,-0.1829999 0.034,-0.746 0,-0.6300001 0,-0.648 -0.047,-0.7620001 -0.03927,-0.087153 -0.09266,-0.1672279 -0.158,-0.237 -0.06845,-0.075511 -0.150123,-0.1378693 -0.241,-0.184 -0.088807,-0.046945 -0.1875531,-0.071974 -0.288,-0.072999 -0.025971,-0.00153 -0.051985,-0.0022 -0.078,-0.00201 z m 9.567,0 c -0.06694,-2.734e-4 -0.133581,0.00881 -0.198,0.027 -0.07793,0.024262 -0.152509,0.058193 -0.222,0.101 -0.0654,0.044644 -0.124871,0.097398 -0.177,0.1569999 -0.04,0.049 -0.093,0.1330001 -0.118,0.188 -0.045,0.097 -0.046,0.1140001 -0.046,0.7950002 v 0.6959999 l 0.057,0.1160001 c 0.032,0.064 0.1,0.16 0.153,0.2149998 0.05505,0.055947 0.117254,0.1043674 0.185,0.144 0.05,0.025 0.13,0.058 0.18,0.072 0.07931,0.018116 0.160838,0.024517 0.242,0.018999 0.08191,-0.00419 0.163095,-0.017604 0.242,-0.04 0.219698,-0.089589 0.393147,-0.265206 0.48,-0.4859999 0.03,-0.088 0.034,-0.1829999 0.034,-0.746 0,-0.6300001 0,-0.648 -0.047,-0.7620001 -0.03926,-0.087161 -0.09264,-0.1672393 -0.158,-0.237 -0.06845,-0.075511 -0.150123,-0.1378693 -0.241,-0.184 -0.08881,-0.046946 -0.187553,-0.071975 -0.288,-0.073 -0.02597,-0.00153 -0.05198,-0.0022 -0.078,-0.00201 z m -15.598,0.022 V 7.3620001 H 4.5209999 V 9.56 H 4.804 V 7.3620001 H 5.6909999 V 7.079 Z m 2.7960002,0 v 2.481 h 0.2629999 v -1.109 H 7.782 v 1.1099999 h 0.2620001 v -2.483 H 7.782 v 1.11 H 6.692 V 7.0779999 Z m 4.7949998,0 v 2.483 h 0.282 l 0.004,-1.895 0.53,1.0679999 h 0.185 l 0.537001,-1.0679999 v 1.895 h 0.277 V 7.0799999 h -0.28 l -0.623,1.2120002 -0.625,-1.2120002 z m 2.596,0 v 2.481 h 0.262 V 8.5970003 l 0.368,-0.008 c 0.362,-0.007 0.37,-0.009 0.5,-0.07 0.08007,-0.039331 0.154139,-0.089835 0.22,-0.1499999 0.06012,-0.065895 0.110622,-0.1399615 0.15,-0.2200001 0.056,-0.1169999 0.063,-0.1519999 0.063,-0.313 0,-0.1539999 -0.009,-0.2 -0.054,-0.2970001 -0.03912,-0.077093 -0.08821,-0.1487074 -0.146,-0.2129998 -0.05822,-0.060069 -0.124927,-0.1112804 -0.198,-0.1520002 -0.07867,-0.03556 -0.161738,-0.060447 -0.247,-0.074 -0.17625,-0.015067 -0.353116,-0.021741 -0.53,-0.02 z m 3.007,0 c -0.243,0 -0.257,0.003 -0.392,0.067 -0.07849,0.037347 -0.150961,0.086221 -0.215,0.1449998 -0.04974,0.056622 -0.08962,0.1211841 -0.118,0.1910001 -0.0246,0.070142 -0.0381,0.1436942 -0.04,0.2179999 0,0.058 0.012,0.1400001 0.027,0.1820001 0.021,0.054082 0.04783,0.1057193 0.08,0.1539998 0.03,0.042 0.096,0.106 0.147,0.1430002 0.05,0.037 0.257,0.1329999 0.458,0.2149998 0.2,0.081 0.4,0.174 0.445,0.2050001 0.0462,0.034386 0.08554,0.077123 0.116,0.1260001 0.021,0.04 0.036,0.1099999 0.036,0.1699998 -0.0018,0.062109 -0.0147,0.123397 -0.038,0.1810002 -0.02142,0.045971 -0.05012,0.088181 -0.085,0.1249998 C 17.14468,9.2841861 17.017192,9.3330855 16.884,9.341 16.723164,9.3519922 16.562612,9.3158507 16.422,9.237 16.326463,9.1668726 16.267673,9.057377 16.262,8.9390001 v -0.074 h -0.266 l 0.008,0.1260001 c 0.005,0.075498 0.02291,0.1495776 0.053,0.219 0.03218,0.061497 0.07255,0.1183479 0.12,0.1689999 0.042,0.042 0.131,0.1019999 0.199,0.134 0.068,0.032 0.163,0.067 0.212,0.076 0.048,0.01 0.147,0.018999 0.22,0.02 0.072,0 0.189,-0.012001 0.26,-0.03 0.07919,-0.019502 0.155984,-0.047673 0.229,-0.084 0.06599,-0.038725 0.125963,-0.086903 0.178,-0.1430002 0.04909,-0.05967 0.08888,-0.1264261 0.118,-0.1980001 0.02991,-0.085044 0.04381,-0.1748927 0.041,-0.2649999 0,-0.12 -0.01,-0.1779999 -0.047,-0.257 -0.0297,-0.061207 -0.06809,-0.1177935 -0.114,-0.1679998 -0.04468,-0.043029 -0.09321,-0.081859 -0.145,-0.1160001 -0.143442,-0.072645 -0.290276,-0.1383868 -0.44,-0.1970002 -0.147777,-0.056663 -0.291454,-0.1234897 -0.43,-0.2 -0.0418,-0.03345 -0.07648,-0.074932 -0.102,-0.1219999 -0.01839,-0.040005 -0.02923,-0.083059 -0.032,-0.127 0.0068,-0.1053441 0.05764,-0.2029624 0.14,-0.2690001 0.04877,-0.031617 0.101576,-0.056508 0.157,-0.074 0.06734,-0.017225 0.136499,-0.02629 0.206,-0.027 0.063,0 0.162,0.013999 0.22,0.031 0.07,0.02 0.133,0.058 0.184,0.1099999 0.05718,0.052048 0.09345,0.1231495 0.102,0.2000002 l 0.008,0.122 H 17.62 L 17.607,7.6789998 c -0.01329,-0.083074 -0.0382,-0.1638661 -0.074,-0.24 -0.03179,-0.066534 -0.07437,-0.1273542 -0.126,-0.1800001 -0.06124,-0.045487 -0.126901,-0.084685 -0.196,-0.1169999 -0.125,-0.06 -0.143,-0.063 -0.383,-0.063 z m 4.137,0 v 2.481 h 0.274 V 7.6639999 L 22.367,9.56 h 0.252 V 7.0799999 h -0.262 v 1.867 L 21.223,7.079 Z M 9.675,7.3199999 c 0.05,0 0.1049999,0.005 0.1400002,0.014999 0.063721,0.021014 0.1242792,0.05062 0.1799998,0.088 0.065415,0.045832 0.119464,0.106038 0.158,0.1759999 l 0.062,0.11 0.007,0.5599999 c 0.005,0.4770002 0.001,0.5780002 -0.027,0.6760001 -0.02327,0.08535 -0.07129,0.1619005 -0.138,0.2200001 -0.057184,0.064486 -0.1313343,0.1116101 -0.2139998,0.136 -0.051949,0.016334 -0.1056626,0.026405 -0.16,0.03 -0.038045,-0.00219 -0.075841,-0.00755 -0.113,-0.015999 -0.049722,-0.014747 -0.097937,-0.034167 -0.144,-0.058 -0.052357,-0.028366 -0.099663,-0.065196 -0.1400001,-0.1090001 -0.036111,-0.045374 -0.066974,-0.094688 -0.092,-0.1470001 -0.033,-0.072 -0.037,-0.1429999 -0.037,-0.6759998 0,-0.5810002 0,-0.5970001 0.047,-0.6960001 0.03019,-0.061802 0.070781,-0.1179538 0.12,-0.1659999 0.04237,-0.036754 0.088259,-0.069244 0.1370001,-0.097 0.067373,-0.028913 0.1396994,-0.044532 0.2129998,-0.046 z m 9.566,0 c 0.05,0 0.106,0.005 0.141,0.014999 0.06372,0.021014 0.124279,0.05062 0.18,0.088 0.06541,0.045832 0.119464,0.106038 0.158,0.1759999 l 0.062,0.11 0.007,0.5599999 c 0.005,0.4770002 10e-4,0.5780002 -0.028,0.6760001 -0.02299,0.085229 -0.07066,0.161766 -0.137,0.2200001 -0.05718,0.064486 -0.131334,0.1116101 -0.214,0.136 -0.05227,0.016402 -0.106327,0.026474 -0.161,0.03 -0.03771,-0.00225 -0.07517,-0.0076 -0.112,-0.015999 -0.04972,-0.014747 -0.09794,-0.034167 -0.144,-0.058 -0.05236,-0.028366 -0.09966,-0.065196 -0.14,-0.1090001 -0.0361,-0.045379 -0.06697,-0.094692 -0.092,-0.1470001 -0.033,-0.072 -0.037,-0.1429999 -0.037,-0.6759998 0,-0.5810002 0,-0.5970001 0.047,-0.6960001 0.03017,-0.061813 0.07077,-0.1179669 0.12,-0.1659999 0.04237,-0.036749 0.08826,-0.069239 0.137,-0.097 0.06737,-0.028913 0.1397,-0.044532 0.213,-0.046 z m -5.158,0.042 h 0.334 c 0.255,0 0.35,0.007 0.408,0.031 0.041,0.016999 0.105,0.06 0.142,0.096 0.037,0.035 0.087,0.1 0.11,0.1449999 0.03,0.056 0.043,0.1180001 0.044,0.202 0.006,0.1462783 -0.05922,0.2864039 -0.175,0.3760002 -0.0556,0.040764 -0.117858,0.071556 -0.184,0.091 -0.06,0.015999 -0.215,0.027 -0.377,0.027 -0.152,0 -0.302,-0.012999 -0.302,-0.012999 z"
     id="path2-3"
     style="stroke-width:1;fill:#ffffff"
     sodipodi:nodetypes="ccccccccccccccccsccccsccccccccccccccccsccccccccccsccccccccccccccccccccccccccccccccccccccccccccccccccccccccccccccccccccccsccccccccccccccccccccccccsccccccccscccccccccccsccccccccsccccccccccccccccccccccccccccccccccccccccccccccccccsccccccscccccccccccccccccccccsccccccccccccccccccccccccccscccccccccccscccccccccccccsccccsccccccccccccccscccccsccccccscc" />
</svg>
